[
    "F#",
    [
        "F",
        "F\uff03 (programming language)",
        "Fair use",
        "France",
        "Facebook",
        "Flickr",
        "Franklin D. Roosevelt",
        "Finland",
        "French language",
        "Florida"
    ],
    [
        "",
        "",
        "",
        "",
        "",
        "",
        "",
        "",
        "",
        ""
    ],
    [
        "https://en.wikipedia.org/wiki/F",
        "https://en.wikipedia.org/wiki/F%EF%BC%83_(programming_language)",
        "https://en.wikipedia.org/wiki/Fair_use",
        "https://en.wikipedia.org/wiki/France",
        "https://en.wikipedia.org/wiki/Facebook",
        "https://en.wikipedia.org/wiki/Flickr",
        "https://en.wikipedia.org/wiki/Franklin_D._Roosevelt",
        "https://en.wikipedia.org/wiki/Finland",
        "https://en.wikipedia.org/wiki/French_language",
        "https://en.wikipedia.org/wiki/Florida"
    ]
]